{
    "message": "정상",
    "statusCode": 200,
    "data":{
        "content": [
            {
                "id": 1,
                "userId": 1,
                "danceId": 1,
                "score": 90,
                "grade": "S",
                "matchRate": "[ 90.65, 80.56, 60.45, 86.53, 56.52... ]",
                "videoPath": "/assets/myChallenge.mp4",
                "videoLength": 30.5,
                "title": "내가만든쇼츠~",
                "youtubeUrl": "https://youtu.be/TIA-NZsr0Hg",
                "tiktokUrl": "https://www.tiktok.com/tictokUrl",
                "thumbnailPath": "/assets/myChallengeThumb.png",
                "createdAt":"2023.03.13"
            },
            {
                "id": 2,
                "userId": 1,
                "danceId": 2,
                "score": 80,
                "grade": "A",
                "matchRate": "[ 40.65, 80.56, 40.45, 46.53, 56.52... ]",
                "videoPath": "/assets/myChallenge.mp4",
                "videoLength": 45.2,
                "title": "내가만든쇼츠~ver2",
                "youtubeUrl": "https://youtu.be/youtubeUrl2",
                "tiktokUrl": "https://www.tiktok.com/tictokUrl2",
                "thumbnailPath": "/assets/myChallengeThumb.png",
                "createdAt":"2023.03.13"
            },
            {
                "id": 3,
                "userId": 1,
                "danceId": 3,
                "score": 70,
                "grade": "B",
                "matchRate": "[ 40.65, 80.56, 40.45, 46.53, 56.52... ]",
                "videoPath": "/assets/myChallenge.mp4",
                "videoLength": 45.2,
                "title": "내가만든쇼츠~ver2",
                "youtubeUrl": "https://youtu.be/youtubeUrl2",
                "tiktokUrl": "https://www.tiktok.com/tictokUrl2",
                "thumbnailPath": "/assets/myChallengeThumb.png",
                "createdAt":"2023.03.13"
            },
            {
                "id": 4,
                "userId": 1,
                "danceId": 4,
                "score": 60,
                "grade": "C",
                "matchRate": "[ 40.65, 80.56, 40.45, 46.53, 56.52... ]",
                "videoPath": "/assets/myChallenge.mp4",
                "videoLength": 45.2,
                "title": "내가만든쇼츠~ver2",
                "youtubeUrl": "https://youtu.be/youtubeUrl2",
                "tiktokUrl": "https://www.tiktok.com/tictokUrl2",
                "thumbnailPath": "/assets/myChallengeThumb.png",
                "createdAt":"2023.03.13"
            },
            {
                "id": 5,
                "userId": 1,
                "danceId": 5,
                "score": 40,
                "grade": "D",
                "matchRate": "[ 40.65, 80.56, 40.45, 46.53, 56.52... ]",
                "videoPath": "/assets/myChallenge.mp4",
                "videoLength": 45.2,
                "title": "내가만든쇼츠~ver2",
                "youtubeUrl": "https://youtu.be/youtubeUrl2",
                "tiktokUrl": "https://www.tiktok.com/tictokUrl2",
                "thumbnailPath": "/assets/myChallengeThumb.png",
                "createdAt":"2023.03.13"
            },
            {
                "id": 6,
                "userId": 1,
                "danceId": 6,
                "score": 10,
                "grade": "E",
                "matchRate": "[ 40.65, 80.56, 40.45, 46.53, 56.52... ]",
                "videoPath": "/assets/myChallenge.mp4",
                "videoLength": 45.2,
                "title": "내가만든쇼츠~ver2",
                "youtubeUrl": "https://youtu.be/youtubeUrl2",
                "tiktokUrl": "https://www.tiktok.com/tictokUrl2",
                "thumbnailPath": "/assets/myChallengeThumb.png",
                "createdAt":"2023.03.13"
            }
        ],
        "pageable": {
            "sort": {
                "empty": true,
                "sorted": false,
                "unsorted": true
            },
            "offset": 0,
            "pageNumber": 0,
            "pageSize": 5,
            "paged": true,
            "unpaged": false
        },
        "last": false,
        "totalElements": 99,
        "totalPages": 20,
        "size": 5,
        "number": 0,
        "sort": {
            "empty": true,
            "sorted": false,
            "unsorted": true
        },
        "first": true,
        "numberOfElements": 99,
        "empty": false
    }
}